{
  "pi": {
    "oct/nov 2017": {
      "date_start": "2017-10-16",
      "date_end": "2017-11-15"
        },
    "nov/dic 2017": {
      "date_start": "2017-11-16",
      "date_end": "2017-12-04"
        },
    "dic/ene 2018": {
      "date_start": "2017-12-05",
      "date_end": "2018-01-15"
        }        
  }
}
